000_difficulty_select.txt
001.txt
002.txt
003.txt
004.txt
005.txt
006.txt
007.txt
008.txt
009.txt
010.txt
011.txt
013.txt
014.txt
015.txt
016.txt
017.txt
019.txt
020.txt
021.txt
022.txt
023.txt
024.txt
025.txt
026.txt
027.txt
028.txt
029.txt
031.txt
032.txt
033.txt
034.txt
035.txt
036.txt
037.txt
039.txt
040.txt
041.txt
042.txt
043.txt
044.txt
045.txt
046.txt
047.txt
048.txt
049.txt
050.txt
051.txt
052.txt
054.txt
055.txt
056.txt
057.txt
058.txt
059.txt
060.txt
061.txt
062.txt
063.txt
064.txt
065.txt
066.txt
067.txt
068.txt
069.txt
071.txt
072.txt
073.txt
074.txt
075.txt
076.txt
077.txt
078.txt
079.txt
081.txt
082.txt
083.txt
084.txt
085.txt
086.txt
087.txt
088.txt
089.txt
090.txt
092.txt
093.txt
094.txt
095.txt
096.txt
097.txt
098.txt
099.txt
100.txt
101.txt
102.txt
103.txt
104.txt
105.txt
107.txt
108.txt
109.txt
110.txt
111.txt
112.txt
113.txt
114.txt
115.txt
116.txt
117.txt
118.txt
119.txt
122.txt
123.txt
124.txt
125.txt
126.txt
127.txt
128.txt
129.txt
131.txt
132.txt
133.txt
134.txt
135.txt
137.txt
138.txt
139.txt
140.txt
141.txt
143.txt
144.txt
145.txt
146.txt
147.txt
148.txt
149.txt
150.txt
151.txt
152.txt
154.txt
155.txt
156.txt
157.txt
158.txt
159.txt
160.txt
161.txt
162.txt
163.txt
164.txt
165.txt
166.txt
167.txt
170.txt
171.txt
172.txt
173.txt
174.txt
177.txt
178.txt
179.txt
180.txt
182.txt
183.txt
184.txt
185.txt
186.txt
189.txt
190.txt
191.txt
193.txt
194.txt
195.txt
196.txt
198.txt
199.txt
200.txt
all_data.txt
B-enemy0a.txt
B-enemy0e.txt
B-enemy0s.txt
B-enemy10a.txt
B-enemy10e.txt
B-enemy10s.txt
B-enemy11a.txt
B-enemy11e.txt
B-enemy11s.txt
B-enemy12a.txt
B-enemy12e.txt
B-enemy12s.txt
B-enemy13a.txt
B-enemy13e.txt
B-enemy13s.txt
B-enemy14a.txt
B-enemy14e.txt
B-enemy14s.txt
B-enemy15a.txt
B-enemy15e.txt
B-enemy15s.txt
B-enemy16a.txt
B-enemy16e.txt
B-enemy16s.txt
B-enemy17a.txt
B-enemy17e.txt
B-enemy17s.txt
B-enemy18a.txt
B-enemy18e.txt
B-enemy18s.txt
B-enemy19a.txt
B-enemy19e.txt
B-enemy19s.txt
B-enemy1a.txt
B-enemy1e.txt
B-enemy1s.txt
B-enemy20a.txt
B-enemy20e.txt
B-enemy20s.txt
B-enemy2a.txt
B-enemy2e.txt
B-enemy2s.txt
B-enemy3a.txt
B-enemy3e.txt
B-enemy3s.txt
B-enemy4a.txt
B-enemy4e.txt
B-enemy4s.txt
B-enemy5a.txt
B-enemy5e.txt
B-enemy5s.txt
B-enemy6a.txt
B-enemy6e.txt
B-enemy6s.txt
B-enemy7a.txt
B-enemy7e.txt
B-enemy7s.txt
B-enemy8a.txt
B-enemy8e.txt
B-enemy8s.txt
B-enemy9a.txt
B-enemy9e.txt
B-enemy9s.txt
E-mob10d.txt
E-mob10e.txt
E-mob10s.txt
E-mob11d.txt
E-mob11e.txt
E-mob11s.txt
E-mob12d.txt
E-mob12e.txt
E-mob12s.txt
E-mob13d.txt
E-mob13e.txt
E-mob13s.txt
E-mob14d.txt
E-mob14e.txt
E-mob14s.txt
E-mob15d.txt
E-mob15e.txt
E-mob15s.txt
E-mob16d.txt
E-mob16e.txt
E-mob16s.txt
E-mob17d.txt
E-mob17e.txt
E-mob17s.txt
E-mob18d.txt
E-mob18e.txt
E-mob18s.txt
E-mob19d.txt
E-mob19e.txt
E-mob19s.txt
E-mob1d.txt
E-mob1e.txt
E-mob1s.txt
E-mob20d.txt
E-mob20e.txt
E-mob20s.txt
E-mob21d.txt
E-mob21e.txt
E-mob21s.txt
E-mob22d.txt
E-mob22e.txt
E-mob22s.txt
E-mob23d.txt
E-mob23e.txt
E-mob23s.txt
E-mob24d.txt
E-mob24e.txt
E-mob24s.txt
E-mob25d.txt
E-mob25e.txt
E-mob25s.txt
E-mob26d.txt
E-mob26e.txt
E-mob26s.txt
E-mob27d.txt
E-mob27e.txt
E-mob27s.txt
E-mob28d.txt
E-mob28e.txt
E-mob28s.txt
E-mob29d.txt
E-mob29e.txt
E-mob29s.txt
E-mob2d.txt
E-mob2e.txt
E-mob2s.txt
E-mob3d.txt
E-mob3e.txt
E-mob3s.txt
E-mob4d.txt
E-mob4e.txt
E-mob4s.txt
E-mob5d.txt
E-mob5e.txt
E-mob5s.txt
E-mob7d.txt
E-mob7e.txt
E-mob7s.txt
E-mob8d.txt
E-mob8e.txt
E-mob8s.txt
E-mob9d.txt
E-mob9e.txt
E-mob9s.txt
end_scene.txt
rest_area_in.txt
rest_area_inn.txt
rest_area_out.txt
rest_area_select.txt
rest_area_shopin.txt
rest_area_shopout.txt
rp01.txt
rp01a.txt
rp02.txt
rp02a.txt
rp03.txt
rp03a.txt
rp04.txt
rp04a.txt
rp05.txt
rp05a.txt
rp06.txt
rp06a.txt
rp07.txt
rp07a.txt
rp08.txt
rp08a.txt
rp09.txt
rp09a.txt
rp10.txt
rp10a.txt
rp11.txt
rp11a.txt
rp12.txt
rp12a.txt
rp13.txt
rp13a.txt
rp14.txt
rp14a.txt
rp15.txt
rp15a.txt
rp16.txt
rp16a.txt
rp17.txt
rp17a.txt
rp18.txt
rp18a.txt
rp19.txt
rp19a.txt
rp20.txt
rp20a.txt
rp21.txt
rp21a.txt
rp22.txt
rp22a.txt
rp23.txt
rp23a.txt
rp24.txt
rp24a.txt
rp25.txt
rp25a.txt
scene_black.txt
