
@bs f=A-dt_P1 face=0 t=20 opa=0 wt=0
@move f=A-dt_P1 x=0 y=0 w=100 h=100 opa=255 t=250 wt=1
@mes_win back=1 pos=1

@bgm f=Battle6

There was a time, when malvolent forces invaded from another world......they were known as   「monster girls」.

@bs f=A-dt_P1_1 face=0 t=20 opa=0 wt=0
@move f=A-dt_P1_1 x=0 y=0 w=100 h=100 opa=255 t=250 wt=1


After countless sacrifices, humans managed to seal them behind the 「GATE」......

@bs f=A-dt_P2 face=0 t=20 opa=0 wt=0
@move f=A-dt_P2 x=0 y=0 w=100 h=100 opa=255 t=250 wt=1


Conflicts resumed and humans who had forgotten about the last war were in great danger.

Monster girls invaded and destroyed many countries......

;;暗転

@bs

The era of monster girls was dawning anew, while humans could only hide and pray......

;;光差す光景

@bs f=A-dt_light face=0 t=20 opa=0 wt=0
@move f=A-dt_light x=0 y=0 w=100 h=100 opa=255 t=250 wt=1


Despite the horrible times, there was a ray of hope.

;;精剣

@se f=剣構え01

@bs f=A-dt_sword face=0 t=20 opa=0 wt=0
@move f=A-dt_sword x=0 y=-100 w=100 h=100 opa=255 t=250 wt=1


The person chosen by Sword of Legend『Semen Sword』appeared......his name was 「Rick」.

He was a commoner, but he had two rare characteristics: he was a『Virgin』and a 『Child』.

@bs f=A-dt_enemy face=0 t=20 opa=0 wt=0
@move f=A-dt_enemy x=0 y=0 w=100 h=100 opa=255 t=250 wt=1


Though he decided to run away at first, he finally revolted against the harpy girl......

@bs f=A-dt_enemy2 face=0 t=20 opa=0 wt=0
@move f=A-dt_enemy2 x=0 y=0 w=100 h=100 opa=255 t=250 wt=1

He was defeated and died after being humiliated......

@bs
@wait t=1000

@se f=se0002
@bs f=A-dt_light face=0 t=20 opa=0 wt=0
@move f=A-dt_light x=0 y=0 w=100 h=100 opa=255 t=250 wt=1

@wait t=1000

@bs
@wait t=1000

@bs
@se f=Sword4
@bs f=A-dt_sword face=0 t=20 opa=0 wt=0
@move f=A-dt_sword x=0 y=-100 w=100 h=100 opa=255 t=250 wt=1

But after that, the power of the 『Semen Sword』revived him and helped him defeat the enemy.

@bs f=A-dt_P2 face=0 t=20 opa=0 wt=0
@move f=A-dt_P2 x=0 y=0 w=100 h=100 opa=255 t=250 wt=1


He abandoned the thought to run away and fought monster girls bravely.

Now, the journey of the Semen Sword's Master is about to begin......The war of reverse rape and semen draining is starting!!

;;暗転
@se f=Fire9
@bgm
@bs f=A-dt_P2_1 face=0 t=20 opa=0 wt=0
@move f=A-dt_P2_1 x=0 y=0 w=100 h=100 opa=255 t=250 wt=1

@bgm f=bgm27

@mes_win back=0 pos=2

[Rick]「......To put it simply, this is a reverse rape hell ahh!!」

@fade type=out t=2000 wt=1

@bs

@wait t=1000

@mes_win back=0 pos=2

;;============================

