;;============================
;;★BGM　シリアス
@bgm f=bgm03

@bg f=廃館
@fade type=in t=500 wt=1

 I go ahead carefully in the ruins slowly--

;;★煙の演出あるかな
@flash col=255,255,255,255 t=500
@wait t=300
@flash col=255,255,255,255 t=500
@wait t=300
@flash col=255,255,255,255 t=500
@wait t=300
 Suddenly, a smoke diffuses before my eyes.

;;★白フラ
@flash col=255,255,255,255 t=300
[Rick]「Uh? Smoke? Somewhere on fire!?」

 Maybe somewhere in ruins is on fire?

 I look at the direction in smoke. But it doesn't look like a fire.

[Rick]「Uh!? WOAH!? AHHH!?」

;;★煙の演出あるかな
@flash col=255,255,255,255 t=500
@wait t=300
@flash col=255,255,255,255 t=500
@wait t=300
@flash col=255,255,255,255 t=500
@wait t=300
 The smoke seems to have conscious and comes close to me slowly.

[Rick](I...... must run away now......!)

 I sense the danger and leave that place with smoke.

@move_f f=蒸気娘@屈辱_z body=-1 face=0 in=c t=300
[Atomis/jok0008]「You can't escape......」

@bs
@se
@bgm
@bgs
@bgv
@rps

;;============================
