;;============================
;;------------------------------------------------------
;;戦闘2～5回目　敗北
;;------------------------------------------------------

;;★BGM　敗北
@bgm f=Scene3

@bg f=要塞通路
@fade type=in t=500 wt=1

@move_f f=サキュバス@普通 body=-1 face=0 in=c t=300
[Succubus/skb0071]「Surely you want to enjoy the pleasure♪ Come on, let me have a taste」

@bs
@bg f=要塞通路
@fade type=in t=500 wt=1

 My eyelids drop down and there's fear of being killed and expectation in my heart.

@bs
@se
@bgm
@bgs
@bgv
@rps

;;============================
