;;============================
;;★BGM　敗北

@wait t=3000

@fin se=射精音 bg=街道

@wait t=500
@se f=潰れる
@flash

[Semen jets out of my penis, splashing all over.]

@bgm f=003

@move_f f=リザードマン@怒り_頬_z face=0 body=-1 in=c t=300
[Lizard Girl/rmn0058]Nmgh!

;;★赤フラ　ｑｋ
@qk
@flash col=255,0,0,255 t=300

[Rick]Uwaaa!

[As the last drop of semen leaks out of my balls I start feeling light-headed.]

@fade type=out t=2000 wt=0

@bgm

[Before my consciousness fades and plunges into darkness, I can still feel the Lizard Girl's cold glare...]

@wait t=2000

@move_f f=リザードマン@ face=0 out=c t=20 wt=0
@rps

@fade type=in t=20 wt=1

@se f=Flash1
@bs f=A_white face=0 body=-1 t=20 wt=1
@fade type=in t=100 wt=1

@fade type=out t=200 wt=1
@fade type=in t=200 wt=1

@fade type=out t=200 wt=1
@fade type=in t=200 wt=1

@se f=Flash3
@move_f f=A_white face=0 out=c t=2000 wt=1

@wait t=1000
@fade type=out t=20 wt=1

@bs f=空 face=0 body=-1 opa=0
@bs f=white face=0 body=-1
@bs f=eyelid_u face=0 body=-1
@bs f=eyelid_b face=0 body=-1

@move f=空 x=0 y=76 w=120 h=120 opa=255 t=20 wt=0
@move f=white x=0 y=0 w=120 h=120 opa=255 t=20 wt=1

@fade type=in t=300 wt=0
@move f=eyelid_u x=0 y=-384 h=100 w=100 opa=0 t=1500 wt=0
@move f=eyelid_b x=0 y=384 h=100 w=100 opa=0 t=1500 wt=0
@move f=white x=0 y=0 h=100 w=100 opa=0 t=1500 wt=1

[This is...!]

;;★BGM　モンスター
@bgm f=003

@se f=衣擦れの音1
@move f=空 x=0 y=-70 w=120 h=120 opa=255 t=100 wt=0
@fade type=out t=100 wt=1
@bs wt=0

@ev f=街道
@move f=街道 x=0 y=-70 w=120 h=120 opa=255 t=20 wt=1

@fade type=in t=100 wt=1

@move_f f=リザードマン@焦り_z face=0 body=-1 in=c t=300

[When I regain consciousness, the Lizard Girl is still beside me.]

@move_f f=リザードマン@ face=0 out=c t=150

[I was raped...th-then...this is...]

@flash col=255,255,255,255 t=300 wt=0
@qk

[I feel my testicles ache.]

;;★白フラ　ｑｋ

@move_f f=リザードマン@屈辱 face=0 body=-1 in=c t=300

[Lizard Girl/rmn0059]H-how is this possible...

[The Lizard Girl looks at me with a shocked expression on her face.]

@se f=「ドクンッ」という心音
@qk

@bgm

[Now! Now's my only chance!]

[Now's my chance to attack the Lizard Girl while she's still dumbfounded.]

[Rick]Uwaaaah!

@bgm f=004

[If I miss this opportunity, she'll just wring me to death again.]

;;★ZOOM
@se f=走る_コンクリート
@bs f=effect/集中線@01 face=0 body=-1 opa=70
@move_f f=リザードマン@ face=0 out=c t=500

@se f=風切り音2
@move f=effect/集中線@01 x=0 y=0 w=100 h=100 opa=0 t=300 wt=0
@move_f f=リザードマン@屈辱_z face=0 in=c t=500

;;★白フラ　ｑｋ
;;★SE　走る

[Rick]HAAAAAAAAA!

@se f=締め付ける
@qk

[I tightly grasp the sword and slash at the Lizard Girl with all my might.]


;;============================
