
;;-------------------------------------------------

;;　【ゴブリン】
;;ＣＧ■CG01e

@bgf bg=ev01e t=1000

@se f=愛液1
@se f=ピストン_激しい l=1


 The body of the Goblin girl around me, has already been covered with my semen.

[Rick]「Whoo Oh…Ah Whoo…Whooooo」

 Although my consciousness is in a hazy, only my heart is beating violently.

[Mother of GoblinＢ/gbb0012]「Umm Whooo!? Hoo Ah Whoo!? Penis…becomes bigger」

[Rick]「Whoo Ohh!? Goo Whoo oh!」

[Rick]（Already, already…no…）

 Dooo Purrr Whoo! Dooo Purrr Whoooo!

@fin se=射精音 bg=A-black

@rps

;;-------------------------------------------------

