;;============================

;;ＣＧ■cut_mob01
@bgm f=bgm04

@bgf bg=cut_mob01 t=1000

;;★SE　服を破る
@se f=パンストを破る pitch=90

[リック]「あっ！？　あぁっ！？」

[ハーピー/mhp0015]「んっ……くひひっ♪　ちょ～っと遊ばせてもらおっかなぁ♪」

@se f=衣擦れの音1

;;　器用にかぎ爪を動かしズボンを切り裂くと、肉棒を引っ張り出してくる。

[ハーピー/mhp0016]「うわっ♪　デカい♪　しかも……んっ♪　ふぅっ♪　すっごいイイ匂いがするぅ」

　肉棒を見たモンスター娘がウットリと瞳を潤ませる。

[リック]「た、助け……っ……」

[ハーピー/mhp0017]「チンチン見てたら欲しくなってきちゃった♪」

@se f=愛液1
@se f=手コキ_低速 l=1

　ギュゥッと肉幹を掴んだかと思うと、そのままシュッシュッと擦り上げ始める。

[リック]「くっ！？　あふっ！？　うぁっ！？」

　肉竿を伝う疼きに、思わず喘ぐように声を漏らす。

[ハーピー/mhp0018]「くひひっ♪　いい声……んっ、ふぅっ、ゾクゾクしちゃうなぁ♪」

[ハーピー/mhp0019]「お前、すっごく良い匂いするから……ザーメンも美味しいよね♪　ほら、早く出しちゃえよ」

[リック]「そ、そんな……」

@se f=愛液1

[ハーピー/mhp0020]「ほらっ♪　ほらっ♪　ほらっ♪」

;;★EF　白フラ
@flash col=255,255,255,255 t=300
@se f=愛液1

[リック]「ひっ！？　いぁっ！　くふぅっ！」

　モンスター娘に攻め立てられると、肉竿の先端が疼き始める。

　恐怖に体は震えっぱなしになっているのに……。

　肉竿だけは隆々と反り返り、トロォと先走り汁を溢れ出させていた。

@se f=パイズリ・手コキ３ l=1

[ハーピー/mhp0021]「んっ♪　ふっ♪　ぅんっ♪　くふぅっ♪　はっ！　はっ！　んんっ！」

　熱っぽい視線を肉棒に向けながら――

@se f=愛液1
@flash col=255,255,255,255 t=300

　モンスター娘が肉棒をしごきあげるのに夢中になっていく。

[リック]（イカされる……っ！　モンスター娘にイカされるなんてっ）

　先端に集まった熱い塊が、今にも噴き上がりそうになっている。

[ハーピー/mhp0022]「ふぁぁ♪　イイ匂い強くなってきたぁ♪　ぁふっ、くぅんっ♪　ムズムズしてきたよぉ♪」

　バサッ、バサッと羽を動かし身悶えしながら、爪先で亀頭をくすぐってくる。

@se f=パイズリ・手コキ２ l=1
@flash

[リック]「くぅっ！？　あぁっ！」

[ハーピー/mhp0023]「イケッ♪　イケッ♪　イケッ♪」

[リック]（も、もぅ出る……出る……ぅっ！）

　昂る射精感は、もうこれ以上耐えられそうにない。

　プルプルと亀頭が震え、今にも堰が決壊しそうになる。

[ハーピー/mhp0024]「んっ、ふぅっ、くふぅっ……はっ、はぁっ、あふぅぅっ♪」

;;★EF　白フラ
@se f=愛液1
@flash col=255,255,255,255 t=300

[リック]（もう駄目だ……ぁっ！）

　握られたままの肉棒がドクンッと大きく脈打ったかと思うと――

;;ＣＧ■cut_mob01a
@fin bg=cut_mob01a se=射精音

　ビュルルッ！　ドブブッ！　ドプゥッ！

@se f=愛液1
　精液が一気にほとばしる。

[ハーピー/mhp0025]「出た出た♪　んふぅ♪　すっごいイイ匂いぃ♪」

　精液が噴き出すのを見て、モンスター娘がケラケラと笑う。

[ハーピー/mhp0026]「すっごい濃い♪　あふっ、んっ、ふぅぅっ……体が熱くなってきたぁ♪」

　浴びせられた精液をぺろりと舐めると、ウットリとなって熱い息を吐き出す。

[リック]「た、助けてくれ……も、もぅ止めてくれ……ぇ」

[ハーピー/mhp0027]「まだまだ出せ♪　チンチンはもっと出せるって言ってるぞ♪」

;;★SE　締め付ける
;;★EF　白フラ
@se f=締め付ける
@flash col=255,255,255,255 t=300

;;★SE　手コキL
@se f=パイズリ・手コキ２ l=1

[リック]「ひぎっ！？」

　脈打つ肉幹に爪が喰い込んでくる。

@fin bg=cut_mob01a se=射精音

　その刺激に全身が強張り、それと同時に盛大に精液が噴き上がる。

[ハーピー/mhp0028]「あはっ♪　またイッパイ出たぁ♪」

[リック]（チンポが……つ、壊される……っ）

　爪で軽く刺激されるだけでも肉竿が甘く痺れる。

[ハーピー/mhp0029]「あれ？　もう出ない？　……そんなことないよね♪」

　射精が勢いを緩め始めても、モンスター娘が肉棒をしごきあげる速度は変わらない。

[ハーピー/mhp0030]「もっとだして♪」

;;★EF　白フラ
@flash col=255,255,255,255 t=300

;;★SE　手コキL
@se f=パイズリ・手コキ２ l=1

[リック]「あああっ！？」

;;★BGM停止
@bgm
@wait t=500


;;★
;;背景■暗転
;;★
;;効果■時間経過
@fade type=out t=1000 wt=1
@wait t=1000

@bs
@ev f=A-black

;;★BGM　敗北
@bgm f=bgm04
@fade type=in t=20 wt=1
@fin bg=cut_mob01b se=射精音

　何度も精液を絞り出され、体に力が入らなくなってくる。

[リック]「や、止めっ……待ってくれ……」

　死の恐怖から逃れたい一心で身をくねらせる。

　だけど、肉棒をガッチリと掴まれている今、逃れる術は無かった。

[ハーピー/mhp0031]「人間が死ぬ瞬間って、何度見てもゾクゾクするね♪」

@se f=締め付ける
@flash col=255,255,255,255 t=300

;;★SE　手コキL
@se f=パイズリ・手コキ２ l=1

[リック]「ひぎっ！？　で、射精る……っ！」

@se f=締め付ける
@flash col=255,255,255,255 t=300

@fin bg=cut_mob01b se=射精音

　爪が喰い込み、精液がほとばしる。

　もう指先さえ動かせない。

　意識が朦朧としてくる。

[リック]「ぎっ！？　あっ？！　ああぁあっ！」

[ハーピー/mhp0032]「あはは♪　まだ生きてる生きてる♪　ビクビクしてるよ♪」

@se f=締め付ける
@flash col=255,255,255,255 t=300

;;★SE　手コキL
@se f=パイズリ・手コキ２ l=1

[リック]「助け……っ……」

[ハーピー/mhp0033]「もう助からないよ♪　死んじゃぇえ♪」

@se f=締め付ける
@flash col=255,255,255,255 t=300

　陰嚢から残り僅かな精液が流れ、陰茎のなかをゆっくりと昇っていく。

[リック]「あぁ……」

　自分の体が壊されていく。

@fade type=out t=1000 wt=0
@fin bg=cut_mob01b se=射精音

　その光景を他人事のように感じながら、俺は最期の射精の中で意識が薄らいでいった。

@wait t=1000

;;★
;;背景■暗転

;;★
;;効果■時間経過

@bs
@se
@bgm
@bgs
@bgv
@rps

;;============================
