;;============================
;;以下、合流します。

;;★BGM　シリアス

;;★SE　剣登場
@bgm
@se f=Sword4
@move_f f=effect/剣 face=0 in=c t=300 wt=1

[リック]「うっ！？　また剣が出てる……」

@move_f f=effect/剣 face=0 out=c t=300

　剣が出ているという事はつまり――

[リック]（またモンスター娘が近づいてきているのか……）

@bgm f=003

　もうここに留まっている訳にもいかない。

[リック]「はぁぁぁ。何で俺はこんな剣を持つようになっちゃったんだろ……」

　手に現れた剣を見て、もう一度ため息をつくと――

@se f=衣擦れの音1
@move f=荒れ果てた家 x=0 y=0 w=130 h=130 opa=255 t=500 wt=1

@se f=歩く_遠
@fade type=out t=1000 wt=1


　モンスター娘から逃れる為、この場を離れる事にした。


@bs
@se
@bgm
@bgs
@bgv
@rps

@fade type=in t=20 wt=1

;;============================
