;;============================
;;★BGM　フィールド

@fade type=out t=20 wt=1

@ev f=街道

@se f=歩く_遠
@fade type=in t=1600 wt=0

@move f=街道 x=0 y=19  w=105 h=105 opa=255 t=400 wt=1
@move f=街道 x=0 y=-19 w=110 h=110 opa=255 t=400 wt=1
@move f=街道 x=0 y=19  w=115 h=115 opa=255 t=400 wt=1
@move f=街道 x=0 y=-19 w=120 h=120 opa=255 t=400 wt=1
@move f=街道 x=0 y=19  w=125 h=125 opa=255 t=400 wt=1
@move f=街道 x=0 y=0 w=130 h=130 opa=255 t=400 wt=1

　モンスター娘に見つかる恐怖に怯えながら、街道を歩いて行く。

[リック]「あっ……街だ……っ！」

　前方にようやく見えた街。

　その入り口に大きな門がある。

[リック]「あそこに入れれば安全だ！」

@se f=走る_遠
@fade type=out t=1200 wt=0
@move f=街道 x=0 y=19  w=135 h=135 opa=255 t=200 wt=1
@move f=街道 x=0 y=-19 w=140 h=140 opa=255 t=200 wt=1
@move f=街道 x=0 y=19  w=145 h=145 opa=255 t=200 wt=1
@move f=街道 x=0 y=-19 w=150 h=150 opa=255 t=200 wt=1
@move f=街道 x=0 y=19  w=155 h=155 opa=255 t=200 wt=1
@move f=街道 x=0 y=0 w=160 h=160 opa=255 t=200 wt=1

;;　そして、その門の前には門番の姿が見えた。

　恐怖が薄れ希望が芽吹くと、門の方へと向かって全速で駆けていく。
@wait t=1000

;;背景■街周辺

@ev f=街門
@move f=街門 x=0 y=0 w=100 h=100 opa=255 t=20 wt=1

@se f=走る_遠
@fade type=in t=2000 wt=1

@bgm f=Town8 pitch=80

[リック]「あ、あの……」

@se f=歩く_遠
@bs f=自警団Ｂ x=-250 y=50 face=0 body=-1 t=20 opa=0 wt=0
@move f=自警団Ｂ x=-250 y=50 w=100 h=100 opa=255 t=1000 wt=1

[門番]「ん？　何だ？　通行証はあるのか？」

[リック]「え？　いえ、持ってないんですけど……」

[門番]「だったら通す訳にはいかないな」

　シッ、シッと追い払うように、門番が手を振る。

[リック]「俺、もうどこにも行くところがないんだ。何とか入れてもらえないかな？」

[門番]「悪いが……ココも、もうそんな余裕は無いんだ。見たところ……剣は良い物を使ってるみたいだが、戦士でもなさそうだしな」

[門番]「今、俺達に欲しいのは、あの異形の娘達と戦える戦士だ。悪いけどアンタじゃ……」

[リック]「…………」

[門番]「雑用をする奴は掃くほどいる。すまないが他に行ってくれ」

@se f=歩く_遠
@move_f f=自警団Ｂ face=0 out=c t=1000 wt=1

[リック]（ダメ、か……）

@se f=歩く_遠
@fade type=out t=1000 wt=1

@bgm

　この門番を説得しようにも証明するものが無い。

　弾んでいた気持ちが一気に萎んでいくのを感じながら、門の前を後にする。

@bs
@se
@bgs
@bgv
@rps

@fade type=in t=20 wt=1

;;============================
