;;============================
;;--------------------------------------------------------------------
;;戦闘イベント：1回目（敗北確定）
;;--------------------------------------------------------------------

;;★BGM　敗北

@fade type=out t=20 wt=1
@move_f f=絵画娘@ face=0 out=c t=20 wt=1
@bs wt=0
@ev f=廃館
@move f=廃館 x=-160 y=140 w=160 h=160 opa=255 t=1000 wt=1
@bs f=絵画娘@普通_z body=-1 face=0
@fade type=in t=20 wt=1

@bgm

@se f=風切り音2
@flash t=300

@wait t=250

;;★ｑｋ
@se f=締め付ける
@qk

@wait t=250

@se f=「ドクンッ」という心音
@qk

[リック]「うっ！？　振りほどけない！？」

@bgm f=003

　絵画から伸びた腕に完全に拘束されてしまった。

;;★ZOOM
[オダリスク/odr0003]「さぁ、楽しい宴を始めましょうか」

;;★ｑｋ
@qk
@se f=締め付ける

[リック]「ああぁっ！」

@se f=締め付ける
@qk

@wait t=250

@se f=風切り音2
@fade type=out t=300 wt=0
@qk

　絵画に押し付けられるように押さえつけられ、

　身動きが取れなくなってしまった。

@move_f f=絵画娘@ face=0 out=c t=20 wt=1

@bs
@se
@bgm
@bgs
@bgv
@rps

@fade type=in t=20 wt=1

;;============================
