;;============================

[リック]「んん～、寝よう……」

@se f=衣擦れの音1
@fade type=out t=1000 wt=1

　眠気に抗えなくなると、再びベッドへと潜り込む事にした。


@wait t=3000

;;背景■宿

;;★BGM　ピンチ

@se f=走る_近
@wait t=3000

@bs f=自警団Ａ face=0 body=-1 y=50

@se f=Open4
@fade type=in t=100 wt=0
@qk t=500

;;★ｑｋ

@move f=自警団Ａ x=0 y=0 w=100 h=100 t=150 wt=1
@move f=自警団Ａ x=0 y=50 w=100 h=100 t=120 wt=1

[兵士]「勇者様、勇者様！」

[リック]「うぅ……な、何？」

@bgm f=003

;;★白フラ
@move f=自警団Ａ x=0 y=0 w=100 h=100 t=150 wt=1
@move f=自警団Ａ x=0 y=50 w=100 h=100 t=120 wt=1

[兵士]「モンスター娘が出現しました……！！　これから討伐に行くので勇者様も支度を！」

[リック]「あ、う、うん……」

@se f=衣擦れの音1
@fade type=out t=500 wt=1

　寝ぼけ眼を擦りながらベッドから起き出す。

@bs
@se
@bgm
@bgs
@bgv
@rps

@fade type=in t=20 wt=1

;;============================
