;;============================
;;------------------------------------------------------
;;戦闘2～5回目　敗北
;;------------------------------------------------------

;;★BGM　敗北
@bgm f=Scene3

@bg f=湖
@fade type=in t=500 wt=1

@move_f f=ドッペルゲンガー@笑み_頬 body=-1 face=0 in=c t=300
[ドッペルゲンガー/dpg0067]「何回やっても無駄よ。いくらでも搾ってあげるわ！」

@bs
@se
@bgm
@bgs
@bgv
@rps

;;============================
