;;============================
;;------------------------------------------------------
;;戦闘2～5回目　勝利
;;------------------------------------------------------

;;★BGM　勝利
@bgm f=Battle5

@bg f=湖
@fade type=in t=500 wt=1

;;★白フラ　ｑｋ
@qk
@flash col=255,255,255,255 t=300
[リック]「はぁああっ！」

@move_f f=ドッペルゲンガー@焦り body=-1 face=0 in=c t=300
[ドッペルゲンガー/dpg0068]「嘘っ……さっきよりも力が増してる！？　そんな事って……」

@bs
@bg f=湖
@fade type=in t=500 wt=1

　傷を負ったドッペルゲンガーが、信じられないといった表情を浮かべる。

　ドッペルゲンガーは不利を悟ったのか――

@move_f f=ドッペルゲンガー@屈辱 body=-1 face=0 in=c t=300
[ドッペルゲンガー/dpg0069]「お願い……助けて……殺さないで！」

@bs
@bg f=湖
@fade type=in t=500 wt=1

　目に涙を浮かべて命乞いをしてくる。

　だけど……。

[リック]「……」

;;★剣で切る演出
@se f=斬る音 pitch=90
@move_f f=effect/斬る@00 face=0 in=c t=200 wt=1
@move_f f=effect/斬る@01 face=0 in=c t=200 wt=1
@wait t=300
@bs

@bg f=湖
@fade type=in t=500 wt=1

　俺は躊躇う事無く、自分と瓜二つの頭に剣を振り下ろした。

[リック]（さっき……自分そっくりの女にレイプされたんだ……）

　そのショックを思うと、自分を切る事に躊躇いは無かった。

@move_f f=ドッペルゲンガー@睨み body=-1 face=0 in=c t=300
[ドッペルゲンガー/dpg0070]「くっ……おぼえてなさい……」
@move_f f=ドッペルゲンガー@睨み out=r t=300

;;★SE　ぐにゃぐにゃ
@se f=触手がうごめく音
@wait t=100
　倒れ込むモンスター娘がのっぺりとした影のような色になったかと思うと――

;;★SE　ぷしゅー
@se
@se f=「プシュー」という噴出音
@wait t=300
　そのまま霧のように霧散した。

[リック]「……倒したのか……？」

[リック]（……いや、どうだろうか。幽霊を剣で倒せるのか？）

　ドッペルゲンガーが生きているにせよ、すでにこの近くにはいないらしい。

[リック]「ふぅぅぅぅぅ」

;;★ｑｋ
;;★SE　座る
@se f=床にドサッ
@qk
@wait t=100

@fadeout t=500 wt=0

　剣が消えたことを確認し、大きく息を吐き出すと、力尽きて場に座り込んでしまった。

@bs
@se
@bgm
@bgs
@bgv
@rps

;;============================
