;;============================


;;★
;;効果■時間経過
@fade type=out t=20 wt=1

;;★BGM　モンスター城
@bgm f=003

@ev f=要塞内部
@move f=要塞内部 x=0 y=0 w=120 h=120 opa=255 t=20 wt=1

@fade type=in t=1000 wt=1

@bs f=石化蛇娘@焦り x=-300 y=50 body=-1 face=0 opa=0 t=20 wt=0
@bs f=淫蚊娘@普通 x=300 y=50 body=-1 face=0 opa=0 t=20 wt=0

@move f=石化蛇娘@焦り x=-300 y=50 w=100 h=100 t=300 wt=0
@move f=淫蚊娘@普通 x=300 y=50 w=100 h=100 t=300 wt=1

@bs f=石化蛇娘@睨み x=-300 y=50 body=-1 face=0 wt=1
[ゴルゴーン/glg0007]「ドッペルゲンガーがやられただと……？」

@bs f=淫蚊娘@哀しみ x=300 y=50 body=-1 face=0 wt=1
[モスキーナ/msk0006]「全く……抜け駆けしといてザコ勇者に倒されたなんて……ほ～んとみっともないわぁ」

@bs f=淫蚊娘@普通 x=300 y=50 body=-1 face=0 wt=1
[モスキーナ/msk0007]「それに、彼女ってゴーストだから死なないけど、しばらく形とどめてられないんでしょ？」

;;★動かす
@bs f=淫蚊娘@哀しみ x=300 y=50 body=-1 face=0 wt=1
@move f=淫蚊娘@哀しみ x=300 y=0 w=100 h=100 t=150 wt=1
@move f=淫蚊娘@哀しみ x=300 y=50 w=100 h=100 t=120 wt=1

[モスキーナ/msk0008]「やられたくせに何の報告もできないなんて使えないやつねぇ。もう私がやっちゃおうかしら」

@bs f=石化蛇娘@焦り x=-300 y=50 body=-1 face=0 wt=1
[ゴルゴーン/glg0008]「何を気楽な事を言っている。我らと同等の力をもつドッペルゲンガーを倒したのだぞ？」

@bs f=淫蚊娘@笑み x=300 body=-1 y=50 face=0
[モスキーナ/msk0009]「私はドッペルゲンガーのようなヘマはしないも～ん」

@bs f=石化蛇娘@屈辱 x=-300 y=50 body=-1 face=0 wt=1
[ゴルゴーン/glg0009]「その驕りがあのドッペルゲンガーにもあったのだ。だから勇者に不覚をとった」

;;★動かす
@bs f=淫蚊娘@怒り x=300 y=50 body=-1 face=0 wt=1
@move f=淫蚊娘@怒り x=300 y=0 w=100 h=100 t=150 wt=1
@move f=淫蚊娘@怒り x=300 y=50 w=100 h=100 t=120 wt=1

[モスキーナ/msk0010]「んん？　もしかして喧嘩を売ってるわけ？」

@bs f=石化蛇娘@屈辱 x=-300 y=50 body=-1 face=0 wt=1
[ゴルゴーン/glg0010]「勇者に対しては慎重に対処するべきだと言っているのが何故分からん」

@bs f=淫蚊娘@笑み x=300 body=-1 y=50 face=0
[モスキーナ/msk0011]「ふんっ！　そうやって手をこまねいているから勇者に好きにされてるんじゃな～い？」

;;★動かす
@bs f=石化蛇娘@睨み x=-300 y=50 body=-1 face=0 wt=1
[ゴルゴーン/glg0011]「何だと……っ」

@move f=石化蛇娘@睨み x=-300 y=50 w=100 h=100 opa=0 t=300 wt=0
@move f=淫蚊娘@笑み x=300 y=50 w=100 h=100 opa=0 t=300 wt=1

@move_f f=石化蛇娘@ face=0 out=c t=20 wt=0
@move_f f=淫蚊娘@ face=0 out=c t=20 wt=1

　ゴルゴーンとモスキーナが火花を散らす勢いで睨み合い――

　口論をヒートアップさせていく。

@move_f f=蒸気娘@拗ねる body=-1 face=0 in=c t=300

　そんな二人を黙ってみていた四天王の一人である蒸気娘が――

@move_f f=蒸気娘@拗ねる out=l t=300

　気付かれないように、無言のままに部屋を出ていった。

@fade type=out t=1000 wt=1

@bs
@se
@bgm
@bgs
@bgv
@rps

@fade type=in t=20 wt=1

;;============================
