;;============================
;;★BGM　シリアス
@bgm

@se f=「ドクンッ」という心音
@flash col=255,0,0,255 t=500

@wait t=250

@flash col=255,0,0,255 t=300
@flash col=255,0,0,255 t=300

@fade type=out t=20 wt=1

@ev f=宿
@move f=宿 x=0 y=0 w=120 h=120 opa=255 t=20 wt=1

@se f=衣擦れの音1
@fade type=in t=100 wt=0
@qk

[リック]「うぁあっ！？」

　悪夢と共に悲鳴を放ちベッドから跳ね起きる。

[リック]「はぁ、はぁ」

@bgm f=003

　街の人たちが自分にかけている期待。

　それがプレッシャーとなる為か、眠っていても悪夢ばかり見てしまう。

[リック]（俺には……俺にはやっぱり無理だ）

　勇者として期待される事への重圧。

　それに耐え切れなくなると――

@se f=走る_遠
@fade type=out t=1000 wt=1

;;★BGM停止
@bgm

　街を出るべく、外へと向かう。

@wait t=2000

;;★BGM　日常(夜)

@ev f=街
@se f=走る_遠

@fade type=in t=600 wt=0

@move f=街 x=0 y=19  w=105 h=105 opa=255 t=200 wt=1
@move f=街 x=0 y=-19 w=110 h=110 opa=255 t=200 wt=1
@move f=街 x=0 y=19  w=115 h=115 opa=255 t=200 wt=1

@fade type=out t=600 wt=0
@move f=街 x=0 y=-19 w=120 h=120 opa=255 t=200 wt=1
@move f=街 x=0 y=19  w=125 h=125 opa=255 t=200 wt=1
@move f=街 x=0 y=0 w=130 h=130 opa=255 t=200 wt=1

[リック]「……」

@bs wt=0

@ev f=街門
@se f=走る_遠

@fade type=in t=1200 wt=0

@move f=街門 x=0 y=19  w=105 h=105 opa=255 t=200 wt=1
@move f=街門 x=0 y=-19 w=110 h=110 opa=255 t=200 wt=1
@move f=街門 x=0 y=19  w=115 h=115 opa=255 t=200 wt=1
@move f=街門 x=0 y=-19 w=120 h=120 opa=255 t=200 wt=1
@move f=街門 x=0 y=19  w=125 h=125 opa=255 t=200 wt=1
@move f=街門 x=0 y=0 w=130 h=130 opa=255 t=200 wt=1

@bs f=自警団Ｂ x=-300 y=50 body=-1 face=0 opa=0 t=20 wt=0
@move f=自警団Ｂ x=-300 y=50 w=100 h=100 t=300 wt=1

　門番の横を、ソッと通り抜けようとすると――

@move f=自警団Ｂ x=-300 y=0 w=100 h=100 t=150 wt=1
@move f=自警団Ｂ x=-300 y=50 w=100 h=100 t=120 wt=1

[門番]「ん？　誰だ……？　あれ？　どこに行くつもりだ？」

　顔を上げた門番が、俺を見て不思議そうに首を傾げる。

;;★ｑｋ
;;★SE　走り去る

[リック]「ご、ごめん！」

　謝ると同時に、全速力で駆けだす。

@se f=走る_遠
@qk

;;★動かす
@move f=自警団Ｂ x=-300 y=0 w=100 h=100 t=100 wt=1
@move f=自警団Ｂ x=-300 y=50 w=100 h=100 t=80 wt=1
@move f=自警団Ｂ x=-300 y=0 w=100 h=100 t=100 wt=1
@move f=自警団Ｂ x=-300 y=50 w=100 h=100 t=80 wt=1

[門番]「え？　あっ、おい！　ま、待て！　待ってくれ！」

@se f=走る_遠
@fade type=out t=1000 wt=1

[リック]（俺は勇者じゃない……勇者なんかじゃないんだ！）

　心の中で叫びながら夜道をひたすらに駆けて行く。

　幸いにして、一人で哨戒にあたっていた為――

　門を離れる事の出来ない門番が追ってくる事は無かった。

@move_f f=自警団Ｂ face=0 out=c t=20 wt=0

@bs
@se
@bgm
@bgs
@bgv
@rps

@fade type=in t=20 wt=1

;;============================
