;;============================
;;※リック視点

;;★BGM　ピンチ
@fade type=out t=20 wt=1
@bgm f=Scene1

@ev f=街道
@fade type=in t=1200 wt=0

@move f=街道 x=0 y=19  w=105 h=105 opa=255 t=200 wt=1
@move f=街道 x=0 y=-19 w=110 h=110 opa=255 t=200 wt=1
@move f=街道 x=0 y=19  w=115 h=115 opa=255 t=200 wt=1
@move f=街道 x=0 y=-19 w=120 h=120 opa=255 t=200 wt=1
@move f=街道 x=0 y=19  w=125 h=125 opa=255 t=200 wt=1
@move f=街道 x=0 y=0 w=130 h=130 opa=255 t=200 wt=1

;;★白フラ
@flash col=255,0,0,255 t=300
[リック]「はぁっ、はっ、はぁっ！　な、何でこんなにモンスター娘が！？」

　行く場所行く場所にモンスター娘が現れる。

　剣を頼りに逃げ続けるうちに廃墟へと来てしまった。

@move_f f=effect/剣 face=0 in=c t=300 wt=1

[リック]（くっ……ここにもモンスター娘が居る……でも……）

　今、外に出るのは危険すぎる。

　廃墟の中にいるモンスター娘と遭遇してしまった時は――

[リック]（その時は戦おう）


　現れたままになっている剣を強く握りしめながら、戦う事を決意する。

@move_f f=effect/剣 face=0 out=c t=300

@bs
@se
@bgm
@bgs
@bgv
@rps

;;============================
