;;============================
;;★BGM　ピンチ
@bgm f=Scene1

@bg f=街
@fade type=in t=500 wt=1
@wait t=300

@bg f=街道
@fade type=in t=500 wt=1
@wait t=300

@bg f=荒野
@fade type=in t=500 wt=1
@wait t=500

;;★白フラ
@flash col=255,255,255,255 t=300
[兵士]「勇者様っ！　勇者さまーーっ！」

[リック]「え……？」

　遠くから呼ぶ声に立ち止まり振り返ると――

　以前、街で出会った事のある兵士が馬を駆って近づいてきていた。

@move_f f=村人Ｂ face=0 in=l t=300 wt=1
[兵士]「勇者様！　今、街がモンスター娘達によって襲撃されております」

[兵士]「我々の力で撃退しようとしたのですが……見た事も無いモンスター娘が現れまして……」

;;★動かす
@bs f=村人Ｂ face=0 body=-1 x=l
@move f=村人Ｂ x=0 y=0 w=100 h=100 t=150 wt=1
@move f=村人Ｂ x=0 y=50 w=100 h=100 t=120 wt=1
@move f=村人Ｂ x=0 y=0 w=100 h=100 t=150 wt=1
[兵士]「我々では、どうにもなりません。どうか……どうか街を救って下さい！」

[リック]（見た事の無いモンスター娘？　それって……）

@move_f f=村人Ｂ face=0 out=c t=100

　俺を狙っているモンスター娘である事は間違いない。

[リック]（今、逃げても、どこかで見つかってしまうかもしれない……それだったら……）

　街へと戻り、ひとまずどんなモンスター娘かを確認しておいた方が良いかもしれない。

[リック]「分かった。街に……戻る」

@bs f=村人Ｂ face=0 body=-1 x=c
[兵士]「おぉっ！　あ、ありがとうございます！」

[リック]（とにかく……行こう）

@move_f f=村人Ｂ face=0 out=c t=100

　逃げ出したいという気持ちを押さえ込みながら、馬を駆り街へと戻る。

@bs
@se
@bgm
@bgs
@bgv
@rps

;;============================
