;;============================
;;★BGM　フィールド
@bgm f=Theme1

@bg f=荒れ果てた家
@fade type=in t=500 wt=1

[リック]「勇者、か……」

　住民たちが自分に希望を託そうとしている。

　でも、その希望を受け止めるだけの力が俺にあるとは思えない……。

[リック]「ふぅぅ」

　荒野にあった朽ちた家で休息をとりながら、小さくため息をついた。

@bs
@se
@bgm
@bgs
@bgv
@rps

;;============================
