;;============================
;;※第三者視点

;;★BGM　モンスター城
@bgm f=Dungeon3

@bg f=要塞内部
@fade type=in t=500 wt=1

@move_f f=石化蛇娘@焦り body=-1 face=0 in=c t=300
[ゴルゴーン/glg0020]「私だけになってしまったか……」

@bs
@bg f=要塞内部
@fade type=in t=500 wt=1

　暗い部屋で呟いた言葉が虚しく響く。

@move_f f=石化蛇娘@屈辱 body=-1 face=0 in=c t=300
[ゴルゴーン/glg0021]（モスキーナは四天王の中でも一番戦闘に向いていたが……それでも不覚をとるとは……）

@bs
@bg f=要塞内部
@fade type=in t=500 wt=1

　勇者は、モンスター娘にとって危険な存在。

　多くの部下を持つ身として、その責任を新たに強くする。

@move_f f=石化蛇娘@普通 body=-1 face=0 in=c t=300
[ゴルゴーン/glg0022]（勇者は生き返るたびになぜだか力が強くなるという情報もあがってきている）

@bs f=石化蛇娘@蔑み body=-1 face=0
[ゴルゴーン/glg0023]（その点を考慮して作戦を練れば不覚を取る事もないはずだ……）
;;★SE　歩き去る
@se f=歩く_遠
@move_f f=石化蛇娘@蔑み out=l t=300

　勇者を倒すための作戦を慎重に練り込みながら、ゴルゴーンは薄暗い部屋を後にした。

;;★SE　扉が閉まる
@se f=ドアを閉める音_鉄
@wait t=100

;;背景■暗転
@bgf- bg=A-black t=1500

;;効果■時間経過

@bs
@se
@bgm
@bgs
@bgv
@rps

;;============================
