;;============================
;;★BGM　ピンチ
@bgm f=Scene1

@bg f=海周辺
@fade type=in t=500 wt=1

[リック]「これは……」

　海辺に近づくと、門番の言った通り――

　石になった鳥や小動物がそこら中に転がっていた。

　そして波打ち際には石化した魚が大量に打ち上げられている。

　その異様な光景に、ゾクッとした震えが背中を駆け上がる。

;;★白フラ
@flash col=255,255,255,255 t=300
[リック]「あっ！？」

　更に歩いて行くと、まるで今にも駆けだしそうな人を形どった彫像を見つける。

[リック]「調査に来た兵士達……なのか？」

　恐怖にひきつった顔を見ると、また震えが背中を駆け上がっていった。

[リック]（間違いないモンスター娘の仕業だ……）

　ずっと現れたままになっている剣を握りながら周囲を見回していると――

;;★白フラ　ｑｋ
;;★SE　ドスン
@se f=「ドンッ」と突き飛ばす音
@qk
@flash col=255,255,255,255 t=300
　ドスンッ！

　何か重い物が落ちてきたような音が背後で響く。

;;★白フラ　ｑｋ
@qk
@flash col=255,255,255,255 t=300
[リック]「っっっ！」

　今さっきまで空を飛んでいた鳥が、石と化して落ちてきた。

[リック]「ど、どこだ！？　どこに居る！？」

　剣を構えたまま上擦った声をあげる。

;;★BGM停止
@bgm

@move_f f=石化蛇娘@妖艶 body=-1 face=0 in=c t=300
[ゴルゴーン/glg0024]「自らやって来るとは随分勇ましいな」

@bs
@bg f=海周辺
@fade type=in t=500 wt=1

;;★BGM　モンスター登場
@bgm f=Scene2

　ズルッ、ズルッと重々しいなにかが這うような音と共に――

　モンスター娘が姿を見せる。

[リック]（このモンスター娘も、今まで一度も見た事が無いタイプだ）

@move_f f=石化蛇娘@普通 body=-1 face=0 in=c t=300
[ゴルゴーン/glg0025]「石化しているという噂を聞けば、逃げ出すと思ったのだがな」

;;★動かす
@bs f=石化蛇娘@蔑み body=-1 face=0 x=c
@move f=石化蛇娘@蔑み x=0 y=50 w=100 h=100 t=150 wt=1
@move f=石化蛇娘@蔑み x=0 y=0 w=100 h=100 t=120 wt=1

[ゴルゴーン/glg0026]「どうした？　心境の変化でもあったのか？　臆病者」

[リック]「知ったような事を言うな！　お、お前に、俺の何が分かる！」

;;★動かす
@bs f=石化蛇娘@笑み body=-1 face=0 x=c
@move f=石化蛇娘@笑み x=0 y=0 w=100 h=100 t=150 wt=1
@move f=石化蛇娘@笑み x=0 y=50 w=100 h=100 t=120 wt=1
@move f=石化蛇娘@笑み x=0 y=0 w=100 h=100 t=150 wt=1
[ゴルゴーン/glg0027]「くくっ、よく吼える。だが、足が震えているぞ」

;;★ｑｋ
@qk
[リック]「っっっ！」

@bs f=石化蛇娘@睨み body=-1 face=0
[ゴルゴーン/glg0028]「勇者などと祭り上げられるのは嫌なのだろう？　何故逃げない？」

[リック]「俺は……じ、自分がやるべき事をやる。ただ、それだけだ……」

@bs f=石化蛇娘@蔑み body=-1 face=0
[ゴルゴーン/glg0029]「ふんっ、勇者気取りか」

@bs f=石化蛇娘@妖艶 body=-1 face=0
[ゴルゴーン/glg0030]「お前が全てを諦めていれば……逃げ回っていれば痛い思いをすることもなかっただろうに」

[リック]「だ、黙れ……！」

@bs
@bg f=海周辺
@fade type=in t=500 wt=1

;;★ZOOM
@bs f=石化蛇娘@妖艶 body=-1 face=0 x=c
@move f=石化蛇娘@妖艶 x=0 y=700 w=500 h=500 t=300 wt=1
[ゴルゴーン/glg0031]「黙るのはお前の方だ。私はゴルゴーン。私の力に慄くが良い！」

@move_f f=石化蛇娘@妖艶 face=0 out=l t=150
@bs
@se
@bgm
@bgs
@bgv
@rps

;;============================
