;;============================
;;------------------------------------------------------
;;戦闘2～5回目　勝利
;;------------------------------------------------------

@bg f=海周辺
@fade type=in t=500 wt=1

;;★BGM　勝利
@bgm f=Battle5

@move_f f=石化蛇娘@焦り body=-1 face=0 in=c t=300
[ゴルゴーン/glg0077]「くくっ……何度殺そうとも生き返る、か……こうなると私にはもうお手上げだな」

[リック]「こ、降参するのか？」

@bs f=石化蛇娘@妖艶 body=-1 face=0
[ゴルゴーン/glg0078]「降参？　降参したとて、人間は私達を許しはしない。そうだろう？」

[リック]「そ、それは……」

@bs
@bg f=海周辺
@fade type=in t=500 wt=1

　モンスター娘に対する怒りや憎悪を思えば、返すべき言葉を見つけられなくなる。

@move_f f=石化蛇娘@睨み body=-1 face=0 in=c t=300
[ゴルゴーン/glg0079]「勇者よ……貴様には負けたが……人間に負けた訳ではない」

@bs f=石化蛇娘@蔑み body=-1 face=0
[ゴルゴーン/glg0080]「何度も生き返るような人間は存在しないのだからな」

[リック]「……」

;;★動かす
@bs f=石化蛇娘@普通 body=-1 face=0 x=c
@move f=石化蛇娘@普通 x=0 y=300 w=200 h=200 t=300 wt=1
@wait t=100
[ゴルゴーン/glg0081]「それに……あまり死に過ぎると良くないことが起きるかもしれんぞ？」

@bs
@bg f=海周辺
@fade type=in t=500 wt=1

[リック]「……この剣の事を知っているのか？」

;;★BGM停止
@bgm

@bs f=石化蛇娘@屈辱 body=-1 face=0 y=0
[ゴルゴーン/glg0082]「……マンティコアだ。」
@wait t=200

;;★BGM　シリアス
@bgm f=bgm03

[リック]「マンティコア？」

@bs f=石化蛇娘@焦り body=-1 face=0
[ゴルゴーン/glg0083]「複数の生き物が合わさったおぞましい姿。その力は……我々よりも遥かに強い」

@bs f=石化蛇娘@妖艶 body=-1 face=0
[ゴルゴーン/glg0084]「あいつなら詳しく知っているだろう。なにせ……くくっ」

[リック]「そのマンティコアはどこにいる？　どうすれば倒せる？」

;;★動かす
@bs f=石化蛇娘@普通 body=-1 face=0 x=c
@move f=石化蛇娘@普通 x=0 y=50 w=100 h=100 t=150 wt=1
@move f=石化蛇娘@普通 x=0 y=0 w=100 h=100 t=120 wt=1
[ゴルゴーン/glg0085]「ふん、そこまで貴様に教える義理は私には無い。自分で探せ」

[リック]「だ、だったら……無理矢理にでも吐いてもらう」

@bs f=石化蛇娘@蔑み body=-1 face=0
[ゴルゴーン/glg0086]「勝てない戦いをするつもりは無い。もとい、勝てるとは思っていなかった。そのためにこの場所で戦ったのだから」
@move_f f=石化蛇娘@蔑み out=l t=300

[リック]「あっ！？　何を……っ！？」

@bs
@bg f=海周辺
@fade type=in t=500 wt=1

;;★SE　水ばしゃ
@se f=Water1
@wait t=100
　モンスター娘が波打ち際に向かうと、海面に飛び込む。

[リック]「あっ！？」

[ゴルゴーン/glg0087]「貴様ら人間は弱い。空も飛べなければ海も渡れない。せいぜい陸で怯えているがいい」
@se f=Water1
@move_f f=石化蛇娘@笑み out=r t=300

[リック]「……」


　モンスター娘が悠々と逃げていく様子を、見つめることしかできない。

　これではもう、マンティコアの情報を聞き出す事は出来ないだろう。

;;★白フラ　ｑｋ
;;★SE　石びきびき
@se f=Battle2
@qk
@flash col=255,255,255,255 t=300
[兵士]「うっ……うぁっ！？　あぁぁっ！」

　モンスター娘がいなくなりしばらくすると、石と化していた兵士や動物たちの石化が解け始める。

[リック]（呪い、というよりは麻痺に近い効果だったのだろうか……）

[リック]（とにかく、倒すべき相手は分かった。マンティコア……）

@move_f f=村人Ｂ face=0 in=l t=300 wt=1
[兵士]「勇者様……一体、俺達は……」

[リック]「しばらくは強力なモンスター娘は現れない筈だ。俺は、またしばらく街を離れる」

[リック]「この世界を混乱に陥れた敵が分かったかもしれない。そう街の人たちに伝えておいてくれ」

;;★動かす
@bs f=村人Ｂ face=0 body=-1
@move f=村人Ｂ x=0 y=50 w=100 h=100 t=150 wt=1
@move f=村人Ｂ x=0 y=0 w=100 h=100 t=120 wt=1
[兵士]「勇者様、お気をつけて！　無事の御帰還をお待ちしております！」

@move_f f=村人Ｂ face=0 out=c t=100

　敬礼する兵士たちに見送られ、マンティコアの居所を探す旅へと足を踏み出す。

@bs
@se
@bgm
@bgs
@bgv
@rps

;;============================
