;;============================
;;------------------------------------------------------
;;戦闘2～5回目　敗北
;;------------------------------------------------------

;;★BGM　敗北
@bgm f=Scene3

@bg f=異世界森
@fade type=in t=500 wt=1

@move_f f=フレッシュゴーレム@哀しみ_z body=-1 face=0 in=c t=300
[フレッシュゴーレム/fls0072]「やっぱり力は弱いわね。まったく、搾るのも手間なんだから大人しくしてなさい」

;;★赤フラ　ｑｋ
@qk
@flash col=255,0,0,255 t=300
[リック]「……ぐぁっ……う、動けない……」

@bs
@bg f=異世界森
@fade type=in t=500 wt=1

　再び拘束された俺に、フレッシュゴーレムがゆっくりとのしかかってきた。

@bs
@se
@bgm
@bgs
@bgv
@rps

;;============================
