;;============================
;;------------------------------------------------------
;;戦闘2～5回目　敗北
;;------------------------------------------------------

;;★BGM　敗北
@bgm f=Scene3

@bg f=墓場
@fade type=in t=500 wt=1

@move_f f=ファントム@笑み body=-1 face=0 in=c t=300
[ファントム/ftm0049]「生き返ったことには、ムカついたけど……。何度も搾れるのなら、むしろ歓迎するわ」

@bs
@bg f=墓場
@fade type=in t=500 wt=1

　ファントムの金縛りで、動けなくなってしまった……。

@bs
@se
@bgm
@bgs
@bgv
@rps

;;============================
