;;============================
;;★BGM　モンスターフィールド
@bgm f=Dungeon10

@bg f=異世界街
@fade type=in t=500 wt=1

@ev f=異世界街

@move f=異世界街 x=0 y=19  w=105 h=105 opa=255 t=200 wt=1
@move f=異世界街 x=0 y=-19 w=110 h=110 opa=255 t=200 wt=1

@move f=異世界街 x=0 y=19  w=115 h=115 opa=255 t=200 wt=1
@move f=異世界街 x=0 y=-19 w=120 h=120 opa=255 t=200 wt=1

　慎重に周囲に気を配りながら歩みを進める。


@bgm
@fade type=out t=1000 wt=1
@wait t=2000

;;★BGM　シリアス
@bgm f=bgm03

@bs
@bg f=要塞周辺
@fade type=in t=500 wt=1

[リック]（さすがに警備が厳しいな……）

　このまま突入するには、モンスター娘の数が多すぎる。

[リック]（なんとか変装でごまかせないか……）

　警備兵は人型のモンスター娘が多いので、近づかれない限りは大丈夫だろう。

[リック]（不安だけど……何とかするしかない……）

[リック]「よし……っ！」

　試してみる手段をいくつか考えると、まずは一つ目の方法に取りかかる。

　警備兵が一人になっている隙に、壁の門に隠れ聞こえるようにうめき声をあげる。

[リック]「ぐぅっ……ぁあっ……！」

;;★動かす
@bs f=モンスターＢ face=0 body=-1
@move f=モンスターＢ x=0 y=50 w=100 h=100 t=150 wt=1
@move f=モンスターＢ x=0 y=0 w=100 h=100 t=120 wt=1
[警備兵１]「どうした！」

@bs
@bg f=要塞周辺
@fade type=in t=500 wt=1

　警備兵が角を曲がった瞬間。剣の柄で頭を殴り掛かる。

;;★白フラ
@flash col=255,255,255,255 t=300
[リック]「そらっ！」

;;★SE　攻撃　赤フラ　ｑｋ
@se f=打撃音1
@qk
@flash col=255,0,0,255 t=300
@move_f f=モンスターＢ face=0 in=c t=300 wt=1
[警備兵１]「がっ！？」
;;★SE　倒れる　ｑｋ
@se f=床にドサッ
@qk
@move_f f=モンスターＢ face=0 out=l t=100

[リック]（これで良いだろう……）

　昏倒させると、警備兵の服を脱がせ縛り上げる。

　警備兵に変装した今、要塞内に忍び込む事も出来る筈。

@bs
@se
@bgm
@bgs
@bgv
@rps

;;============================
