;;============================
;;------------------------------------------------------
;;戦闘2～5回目　勝利
;;------------------------------------------------------

;;★BGM　勝利
@bgm f=Battle5

@bg f=要塞通路
@fade type=in t=500 wt=1

　爛々とハスティアの瞳が輝き始めた瞬間に――

;;★白フラ　ｑｋ　塩を投げる
@se f=Sand
@qk
@flash col=255,255,255,255 t=300
[リック]「くらえっ！」

　腰につけてあった、食事に使う時の塩をハスティアに向かって投げつける。

;;★赤フラ　ｑｋ
@qk
@flash col=255,0,0,255 t=300
@move_f f=ハスティア@静かな微笑 body=-1 face=0 in=c t=300
[ハスティア/hst0139]「ひゃぁっ！？　痛いっ！？　痛いっ！？」

@bs
@bg f=要塞通路
@fade type=in t=500 wt=1

　見開いていた瞳に塩が入ると、ハスティアが痛みに我慢できず眼を閉じる。

[リック]（今だ……っ！）

　ハスティアの本体に斬りかかれば、あのマントが自動的に防御をするだろう。

　だから、斬りかかる振りをして……。

;;★白フラ　ｑｋ
@qk
@flash col=255,255,255,255 t=300
[リック]「んっ！」

;;★SE　服を脱がす
@se f=服を脱ぐ音
@wait t=100
　ムンズッとマントを掴むと、ハスティアからそれを引っぺがす。

;;★ZOOM
@bs f=ハスティア@屈辱_z body=-1 face=0 x=c
@move f=ハスティア@屈辱_z x=0 y=200 w=200 h=200 t=300 wt=1
@wait t=100
[ハスティア/hst0140]「あぁっ！？　な、何するんだよ……！」

@move_f f=ハスティア@屈辱_z face=0 out=l t=150
@bs
@bg f=要塞通路
@fade type=in t=500 wt=1

　痛む眼を細めながら、驚き戸惑うハスティア。

[ハスティア/hst0141]「こんな格好じゃ取りにいけないよぉ」

@bs
@bg f=要塞通路
@fade type=in t=500 wt=1

　羞恥を滲ませるハスティアに、一瞬、罪悪感を生じさせてしまったが……。

[リック]「……」

;;★SE　突き飛ばす　白フラ　ｑｋ
@flash col=255,255,255,255 t=300
[ハスティア/hst0142]「……ぅきゃあ！」
@se f=「ドンッ」と突き飛ばす音
@qk
@move_f f=ハスティア@焦り_z out=r t=100

@bs
@bg f=要塞通路
@fade type=in t=500 wt=1

　ハスティアを突き飛ばし、城の内部へと進んでいった。


;;背景■暗転

;;効果■時間経過
@bgf- bg=A-black t=1500

@bs
@se
@bgm
@bgs
@bgv
@rps

;;============================
