;;============================
;;※○マップ15

;;★BGM　モンスター城
@bgm f=Dungeon3

@bg f=要塞通路
@fade type=in t=500 wt=1

[リック]「……ん?」

;;★SE　香り
@se f=Up3
@wait t=100
　なんだか甘い香りが漂っている。

　気にせずそのまま進んでいると、だんだんムラッとした気持ちが強くなってくる。

;;★BGM停止
@bgm

@move_f f=サキュバス@普通 body=-1 face=0 in=c t=300
[サキュバス/skb0001]「人が来るなんて珍しいね」

@bs
@bg f=要塞通路
@fade type=in t=500 wt=1

;;★BGM　モンスター登場
@bgm f=Scene2

　目の前に現れた女性を見た瞬間から、更にムラムラした気持ちが強くなる。

[リック]「モンスター娘……か」

;;★動かす
@bs f=サキュバス@誘惑 body=-1 face=0 x=c
@move f=サキュバス@誘惑 x=0 y=0 w=100 h=100 t=150 wt=1
@move f=サキュバス@誘惑 x=0 y=50 w=100 h=100 t=120 wt=1
@move f=サキュバス@誘惑 x=0 y=0 w=100 h=100 t=150 wt=1
[サキュバス/skb0002]「ふふっ……なんの種族だと思う？」

@bs
@bg f=要塞通路
@fade type=in t=500 wt=1

　青い肌に角と尻尾……見るからに悪魔だとは思う。

　だけど、このモンスター娘から漂ってくる香りを嗅いでいるとだんだん思考がぼやけてくる。

[リック]「もしかして……サキュバス？」

@move_f f=サキュバス@普通 body=-1 face=0 in=c t=300
[サキュバス/skb0003]「アタリ。お礼にイイ事をしてあげる」

;;★白フラ
@flash col=255,255,255,255 t=300
[リック]「今はそんな時間は無い！」

@bs f=サキュバス@誘惑 body=-1 face=0
[サキュバス/skb0004]「時間はいくらでもあるよ。それに……ずっとこの匂いを嗅いでて、そろそろ眠たくなってきたでしょ？」

@bs
@bg f=要塞通路
@fade type=in t=500 wt=1

　言われてみると、だんだん瞼が重くなってきている。あの問いかけは時間を稼ぐためだったのか……。

;;★ZOOM
@bs f=サキュバス@普通_z body=-1 face=0 x=c
@move f=サキュバス@普通_z x=0 y=0 w=500 h=500 t=300 wt=1
@bs
@bg f=要塞通路
@fade type=in t=500 wt=1

　サキュバスがスッと近づいてくると、甘い息を吹きかけてきた。

[リック]「あぁ……」

@move_f f=サキュバス@普通_z face=0 out=l t=150

;;★SE　倒れる　ｑｋ
;;★暗転
@bgf- bg=A-black t=500
@se f=床にドサッ
@qk

　その瞬間、強烈な睡魔が襲いかかり、そのまま倒れ込んでしまう。

@bs
@se
@bgm
@bgs
@bgv
@rps

;;============================
