;;============================
;;------------------------------------------------------
;;戦闘2～5回目　敗北
;;------------------------------------------------------

;;★BGM　敗北
@bgm f=Scene3

@bg f=要塞通路
@fade type=in t=500 wt=1

@move_f f=サキュバス@普通 body=-1 face=0 in=c t=300
[サキュバス/skb0071]「やっぱり気持ちよくなりたんじゃない♪　ほら、もういっかい食べてあげる」

@bs
@bg f=要塞通路
@fade type=in t=500 wt=1

　そういわれている間にも瞼が下がっていき、また食べられることへの恐怖と、ほんの少しの期待が生まれてしまった。

@bs
@se
@bgm
@bgs
@bgv
@rps

;;============================
