;;============================
;;--------------------------------------------------------------------
;;戦闘イベント：1回目（敗北確定）
;;--------------------------------------------------------------------

;;★BGM　敗北
@bgm f=Scene3

@bg f=要塞通路
@fade type=in t=500 wt=1

;;★ZOOM
@bs f=ジ・オルテ@微笑_頬 body=-1 face=0 x=c
@move f=ジ・オルテ@微笑_頬 x=0 y=200 w=200 h=200 t=300 wt=1
@wait t=100
[ジ・オルテ/olt0017]「絶望するまで、何度でも搾ってあげる」

@bs
@bg f=要塞通路
@fade type=in t=500 wt=1

　歩み寄ってくるジ・オルテをみて、諦めが浮かんでくる。

@bs
@se
@bgm
@bgs
@bgv
@rps

;;============================
