
@fade type=out t=1000 wt=1

;;+++++++++++++++++++++++++++++++++++++++++++++++++++++++++++++++++

@if eval=v(111)>=9 ok=jump:*right_branch001 bad=jump:*left_branch001
;;-------------------------------------
;;　右の時
*right_branch001

@bg f=要塞部屋

@jump target=*dir_branch001
;;-------------------------------------
;;　左の時
*left_branch001

@bg f=荒れ果てた街

@jump target=*dir_branch001
;;-------------------------------------
*dir_branch001

;;+++++++++++++++++++++++++++++++++++++++++++++++++++++++++++++++++

@fade type=in t=1000 wt=1

