
;;【ナイア・真の姿】

@bgm f=bgm06

;;ＣＧ■CG24e
@bgf bg=ev24e t=1000

@bgv f=seme_nia1
@se f=愛液1

@se f=ピストン_激しい l=1

[ナイア/nia0120]「イイぞ。くくっ、さぁ……欲望のままに吐き出せ！　イケっ！　イクが良いっ！」

　ナイアが本気で俺をイカせにかかってくる。

　膣肉のうねりにあわせ、俺も本能のままに腰を振りたてていく。

@se f=ピストン_高速 l=1
@se f=愛液1

[リック]「ぁっ！　ぁっ！　ぁっ！」

[ナイア/nia0121]「はふっ！？　んっ！？　くぅっ！？　ァアッ！　んふぅうんっ！」

[リック]「イク……っ！」

;;ＣＧ■CG24f
@fin bg=ev24f se=射精音

　ビュルルッ！　ドブッ！　ドビュルゥウ！

@bgm
@se
@bgv
@bgs
@bs
@ev
@bg

@rps
